{
  "data": [
    {
      "id": "1",
      "accountId": "1",
      "name": "Prista Candra",
      "email": "sent55@yahoo.com",
      "expertise": null,
      "availability": null,
      "age": 53,
      "gender": "MALE",
      "location": "Addis Ababa",
      "isActive": true,
      "deletedAt": null,
      "createdAt": "2024-12-20T00:00:00.000Z",
      "updatedAt": "2024-12-20T00:00:00.000Z"
    },
    {
      "id": "2",
      "accountId": "2",
      "name": "Prista Candra",
      "email": "sent55@yahoo.com",
      "expertise": null,
      "availability": null,
      "age": 53,
      "gender": "MALE",
      "location": "Addis Ababa",
      "isActive": true,
      "deletedAt": null,
      "createdAt": "2024-12-20T00:00:00.000Z",
      "updatedAt": "2024-12-20T00:00:00.000Z"
    },
    {
      "id": "3",
      "accountId": "3",
      "name": "Prista Candra",
      "email": "sent55@yahoo.com",
      "expertise": null,
      "availability": null,
      "age": 53,
      "gender": "MALE",
      "location": "Addis Ababa",
      "isActive": true,
      "deletedAt": null,
      "createdAt": "2024-12-20T00:00:00.000Z",
      "updatedAt": "2024-12-20T00:00:00.000Z"
    },
    {
      "id": "4",
      "accountId": "4",
      "name": "Prista Candra",
      "email": "sent55@yahoo.com",
      "expertise": null,
      "availability": null,
      "age": 53,
      "gender": "MALE",
      "location": "Addis Ababa",
      "isActive": true,
      "deletedAt": null,
      "createdAt": "2024-12-20T00:00:00.000Z",
      "updatedAt": "2024-12-20T00:00:00.000Z"
    },
    {
      "id": "5",
      "accountId": "5",
      "name": "Prista Candra",
      "email": "sent55@yahoo.com",
      "expertise": null,
      "availability": null,
      "age": 67,
      "gender": "FEMALE",
      "location": "Addis Ababa",
      "isActive": false,
      "deletedAt": null,
      "createdAt": null,
      "updatedAt": null
    },
    {
      "id": "6",
      "accountId": "6",
      "name": "Prista Candra",
      "email": "sent55@yahoo.com",
      "expertise": null,
      "availability": null,
      "age": 43,
      "gender": "MALE",
      "location": "Addis Ababa",
      "isActive": false,
      "deletedAt": null,
      "createdAt": null,
      "updatedAt": null
    },
    {
      "id": "7",
      "accountId": "7",
      "name": "Prista Candra",
      "email": "sent55@yahoo.com",
      "expertise": null,
      "availability": null,
      "age": 48,
      "gender": "MALE",
      "location": "Addis Ababa",
      "isActive": false,
      "deletedAt": null,
      "createdAt": null,
      "updatedAt": null
    },
    {
      "id": "8",
      "accountId": "8",
      "name": "Prista Candra",
      "email": "sent55@yahoo.com",
      "expertise": null,
      "availability": null,
      "age": 53,
      "gender": "MALE",
      "location": "Addis Ababa",
      "isActive": true,
      "deletedAt": null,
      "createdAt": "2024-12-20T00:00:00.000Z",
      "updatedAt": "2024-12-20T00:00:00.000Z"
    },
    {
      "id": "10",
      "accountId": "10",
      "name": "Prista Candra",
      "email": "sent55@yahoo.com",
      "expertise": null,
      "availability": null,
      "age": 28,
      "gender": "MALE",
      "location": "Addis Ababa",
      "isActive": true,
      "deletedAt": null,
      "createdAt": "2024-12-25T00:00:00.000Z",
      "updatedAt": "2024-12-25T00:00:00.000Z"
    }
  ],
  "meta": {
    "total": 350,
    "page": 1,
    "limit": 10,
    "totalPages": 35
  }
}